playerID,yearID,stint,teamID,lgID,G,AB,R,H,2B,3B,HR,RBI,SB,CS,BB,SO,IBB,HBP,SH,SF,GIDP
brownpe01,1891,1,PIT,NL,50,203,35,59,14,1,4,28,4,,27,31,,1,,,
zagunma01,2019,1,CHN,NL,30,36,2,9,3,0,0,5,0,0,4,16,0,0,0,0,1
brownpe01,1891,2,CIN,NL,55,216,29,74,10,3,0,33,12,,24,23,,2,,,
phamth01,2019,1,TBA,AL,145,567,77,155,33,2,21,68,25,4,81,123,4,5,0,1,22
